Lab 5
…
view(surveys)

#Columns to keep
select(surveys,plot_id, species_id, weight)

## # A tibble: 34,786 x 3
##    plot_id species_id weight
##      <dbl> <chr>       <dbl>
##  1       2 NL             NA
##  2       2 NL             NA
##  3       2 NL             NA
##  4       2 NL             NA
##  5       2 NL             NA
##  6       2 NL             NA
##  7       2 NL             NA
##  8       2 NL             NA
##  9       2 NL            218
## 10       2 NL             NA
## #  with 34,776 more rows

#Columns to exclude 
select(surveys, -record_id, -species_id)

## # A tibble: 34,786 x 11
##    month   day  year plot_id sex   hindfoot_length weight genus species taxa 
##    <dbl> <dbl> <dbl>   <dbl> <chr>           <dbl>  <dbl> <chr> <chr>   <chr>
##  1     7    16  1977       2 M                  32     NA Neot albigu Rode
##  2     8    19  1977       2 M                  31     NA Neot albigu Rode
##  3     9    13  1977       2 <NA>               NA     NA Neot albigu Rode
##  4    10    16  1977       2 <NA>               NA     NA Neot albigu Rode
##  5    11    12  1977       2 <NA>               NA     NA Neot albigu Rode
##  6    11    12  1977       2 <NA>               NA     NA Neot albigu Rode
##  7    12    10  1977       2 <NA>               NA     NA Neot albigu Rode
##  8     1     8  1978       2 <NA>               NA     NA Neot albigu Rode
##  9     2    18  1978       2 M                  NA    218 Neot albigu Rode
## 10     3    11  1978       2 <NA>               NA     NA Neot albigu Rode
## #  with 34,776 more rows, and 1 more variable: plot_type <chr>

#filter by especifications 
filter(surveys, year == 1995)

## # A tibble: 1,180 x 13
##    record_id month   day  year plot_id species_id sex   hindfoot_length weight
##        <dbl> <dbl> <dbl> <dbl>   <dbl> <chr>      <chr>           <dbl>  <dbl>
##  1     22314     6     7  1995       2 NL         M                  34     NA
##  2     22728     9    23  1995       2 NL         F                  32    165
##  3     22899    10    28  1995       2 NL         F                  32    171
##  4     23032    12     2  1995       2 NL         F                  33     NA
##  5     22003     1    11  1995       2 DM         M                  37     41
##  6     22042     2     4  1995       2 DM         F                  36     45
##  7     22044     2     4  1995       2 DM         M                  37     46
##  8     22105     3     4  1995       2 DM         F                  37     49
##  9     22109     3     4  1995       2 DM         M                  37     46
## 10     22168     4     1  1995       2 DM         M                  36     48
## #  with 1,170 more rows, and 4 more variables: genus <chr>, species <chr>,
## #   taxa <chr>, plot_type <chr>

Challenge

1

surveys %>% 
  filter( year < 1995) %>% 
  select(year, sex, weight)

## # A tibble: 21,486 x 3
##     year sex   weight
##    <dbl> <chr>  <dbl>
##  1  1977 M         NA
##  2  1977 M         NA
##  3  1977 <NA>      NA
##  4  1977 <NA>      NA
##  5  1977 <NA>      NA
##  6  1977 <NA>      NA
##  7  1977 <NA>      NA
##  8  1978 <NA>      NA
##  9  1978 M        218
## 10  1978 <NA>      NA
## #  with 21,476 more rows
…
4

surveys %>% 
  filter(!is.na(hindfoot_length)) %>% 
  group_by(species_id) %>% 
  summarize(mean_hindfoot = mean(hindfoot_length),
            max_hindfoot = max(hindfoot_length),
            min_hindfoot = min(hindfoot_length),
            n=n()) #this add number of observations 

## # A tibble: 25 x 5
##    species_id mean_hindfoot max_hindfoot min_hindfoot     n
##    <chr>              <dbl>        <dbl>        <dbl> <int>
##  1 AH                  33             35           31     2
##  2 BA                  13             16            6    45
##  3 DM                  36.0           50           16  9972
##  4 DO                  35.6           64           26  2887
##  5 DS                  49.9           58           39  2132
##  6 NL                  32.3           70           21  1074
##  7 OL                  20.5           39           12   920
##  8 OT                  20.3           50           13  2139
##  9 OX                  19.1           21           13     8
## 10 PB                  26.1           47            2  2864
## #  with 15 more rows

5

surveys %>% 
  filter(!is.na(weight)) %>% 
  group_by(year) %>% 
  filter(weight==max(weight)) %>% 
  select(year,genus,species,weight) %>% 
  arrange(year)

## # A tibble: 27 x 4
## # Groups:   year [26]
##     year genus     species     weight
##    <dbl> <chr>     <chr>        <dbl>
##  1  1977 Dipodomys spectabilis    149
##  2  1978 Neotoma   albigula       232
##  3  1978 Neotoma   albigula       232
##  4  1979 Neotoma   albigula       274
##  5  1980 Neotoma   albigula       243
##  6  1981 Neotoma   albigula       264
##  7  1982 Neotoma   albigula       252
##  8  1983 Neotoma   albigula       256
##  9  1984 Neotoma   albigula       259
## 10  1985 Neotoma   albigula       225
## #  with 17 more rows
…
7

rich_time %>% 
  gather(year,n_genera, -plot_id)

## # A tibble: 624 x 3
## # Groups:   plot_id [24]
##    plot_id year  n_genera
##      <dbl> <chr>    <int>
##  1       1 1977         2
##  2       2 1977         6
##  3       3 1977         5
##  4       4 1977         4
##  5       5 1977         4
##  6       6 1977         3
##  7       7 1977         3
##  8       8 1977         2
##  9       9 1977         3
## 10      10 1977         1
## #  with 614 more rows
…
9

surveys.long %>% 
  group_by(year, measurement, plot_type) %>% 
  summarise(mean_value = mean(value, na.rm=T)) %>% 
  spread(measurement, mean_value)

## # A tibble: 130 x 4
## # Groups:   year [26]
##     year plot_type                 hindfoot_length weight
##    <dbl> <chr>                               <dbl>  <dbl>
##  1  1977 Control                              36.1   50.4
##  2  1977 Long-term Krat Exclosure             33.7   34.8
##  3  1977 Rodent Exclosure                     39.1   48.2
##  4  1977 Short-term Krat Exclosure            35.8   41.3
##  5  1977 Spectab exclosure                    37.2   47.1
##  6  1978 Control                              38.1   70.8
##  7  1978 Long-term Krat Exclosure             22.6   35.9
##  8  1978 Rodent Exclosure                     37.8   67.3
##  9  1978 Short-term Krat Exclosure            36.9   63.8
## 10  1978 Spectab exclosure                    42.3   80.1
## #  with 120 more rows

Exercises

SNPs <- read_tsv("data/23andMe_complete.txt", skip = 14, col_types = 
                   cols(chromosome = col_factor()))

Exercise 1

select(SNPs, position, genotype)

## # A tibble: 960,614 x 2
##    position genotype
##       <dbl> <chr>   
##  1    82154 AA      
##  2   752566 AA      
##  3   752721 GG      
##  4   776546 AG      
##  5   798959 AG      
##  6   800007 CC      
##  7   838555 AC      
##  8   846808 CT      
##  9   854250 AG      
## 10   861808 GG      
## #  with 960,604 more rows

Exercise 2

SNPs %>% 
  filter(chromosome=='MT') %>% 
  filter(genotype != 'A', genotype !='T')

## # A tibble: 1,071 x 4
##    rsid     chromosome position genotype
##    <chr>    <fct>         <dbl> <chr>   
##  1 i4001358 MT                9 G       
##  2 i4000553 MT               26 C       
##  3 i4001190 MT               41 C       
##  4 i4000964 MT               43 C       
##  5 i3001932 MT               53 G       
##  6 i3002014 MT               54 G       
##  7 i3000804 MT               61 C       
##  8 i3000991 MT               62 G       
##  9 i3001266 MT               64 C       
## 10 i3001438 MT               68 G       
## #  with 1,061 more rows

#or
filter(SNPs, chromosome == 'MT', genotype != 'A', genotype !='T')

## # A tibble: 1,071 x 4
##    rsid     chromosome position genotype
##    <chr>    <fct>         <dbl> <chr>   
##  1 i4001358 MT                9 G       
##  2 i4000553 MT               26 C       
##  3 i4001190 MT               41 C       
##  4 i4000964 MT               43 C       
##  5 i3001932 MT               53 G       
##  6 i3002014 MT               54 G       
##  7 i3000804 MT               61 C       
##  8 i3000991 MT               62 G       
##  9 i3001266 MT               64 C       
## 10 i3001438 MT               68 G       
## #  with 1,061 more rows

Exercise 3

SNPs %>% 
  group_by(chromosome) %>% 
  summarize(max_position = max(position),
            min_position = min(position),
            n=n()) #this add number of observations 

## # A tibble: 25 x 4
##    chromosome max_position min_position     n
##    <fct>             <dbl>        <dbl> <int>
##  1 1             249218992        82154 76909
##  2 2             243048760        18674 77346
##  3 3             197838262        61495 63285
##  4 4             190963766        71566 55017
##  5 5             180696889        27564 56019
##  6 6             170919470       155815 63245
##  7 7             159119486        44935 50965
##  8 8             146293414       164984 49215
##  9 9             141066491        46587 42969
## 10 10            135508269        98087 50322
## #  with 15 more rows

Exercise 4

SNPs %>% 
  group_by(chromosome) %>% 
  summarize(max_position = max(position),
            min_position = min(position),
            n=n()) %>% #this add number of observations 
  mutate(density = n/(max_position-min_position))

## # A tibble: 25 x 5
##    chromosome max_position min_position     n  density
##    <fct>             <dbl>        <dbl> <int>    <dbl>
##  1 1             249218992        82154 76909 0.000309
##  2 2             243048760        18674 77346 0.000318
##  3 3             197838262        61495 63285 0.000320
##  4 4             190963766        71566 55017 0.000288
##  5 5             180696889        27564 56019 0.000310
##  6 6             170919470       155815 63245 0.000370
##  7 7             159119486        44935 50965 0.000320
##  8 8             146293414       164984 49215 0.000337
##  9 9             141066491        46587 42969 0.000305
## 10 10            135508269        98087 50322 0.000372
## #  with 15 more rows

Exercise 5

SNPs %>% 
  group_by(chromosome) %>% 
  summarize(max_position = max(position),
            min_position = min(position),
            n=n()) %>% #this add number of observations 
  mutate(density = n/(max_position-min_position)) %>% 
arrange(density)

## # A tibble: 25 x 5
##    chromosome max_position min_position     n   density
##    <fct>             <dbl>        <dbl> <int>     <dbl>
##  1 Y              59032809      2649694  1766 0.0000313
##  2 X             155236747        62321 26007 0.000168 
##  3 4             190963766        71566 55017 0.000288 
##  4 9             141066491        46587 42969 0.000305 
##  5 1             249218992        82154 76909 0.000309 
##  6 5             180696889        27564 56019 0.000310 
##  7 19             59097160       260912 18533 0.000315 
##  8 2             243048760        18674 77346 0.000318 
##  9 3             197838262        61495 63285 0.000320 
## 10 7             159119486        44935 50965 0.000320 
## #  with 15 more rows
…
